rbmi: Quickstart
…
# In this dataset, subject 3618 has an intermittent missing values which does not correspond
# to a study drug discontinuation. We therefore remove this subject from `dat_ice`. 
# (In the later imputation step, it will automatically be imputed under the default MAR assumption.)
dat_ice <- dat_ice[-which(dat_ice$PATIENT == 3618),]

dat_ice
#> # A tibble: 43 × 3
#>    PATIENT VISIT strategy
#>    <fct>   <fct> <chr>   
#>  1 1513    5     JR      
#>  2 1514    5     JR      
#>  3 1517    5     JR      
#>  4 1804    7     JR      
#>  5 2104    7     JR      
#>  6 2118    5     JR      
#>  7 2218    6     JR      
#>  8 2230    6     JR      
#>  9 2721    5     JR      
#> 10 2729    5     JR      
#> # … with 33 more rows
…
It is appreciated that carrying out this procedure is potentially tedious, therefore the
delta_template() helper function has been provided to simplify it. In particular,
delta_template() returns a shell data.frame where the delta-adjustment is set to 0 for all
patients. Additionally delta_template() adds several meta-variables onto the shell
data.frame which can be used for manual derivation or manipulation of the delta-adjustment.

For example lets say we want to add a delta-value of 5 to all imputed values (i.e. those values
which were missing in the original dataset) in the drug arm. That could then be implemented as follows:

# For reference show the additional meta variables provided
delta_template(imputeObj) %>% as_tibble()
#> # A tibble: 688 × 8
#>    PATIENT VISIT THERAPY is_mar is_missing is_post_ice strategy delta
#>    <fct>   <fct> <fct>   <lgl>  <lgl>      <lgl>       <chr>    <dbl>
#>  1 1503    4     DRUG    TRUE   FALSE      FALSE       <NA>         0
#>  2 1503    5     DRUG    TRUE   FALSE      FALSE       <NA>         0
#>  3 1503    6     DRUG    TRUE   FALSE      FALSE       <NA>         0
#>  4 1503    7     DRUG    TRUE   FALSE      FALSE       <NA>         0
#>  5 1507    4     PLACEBO TRUE   FALSE      FALSE       <NA>         0
#>  6 1507    5     PLACEBO TRUE   FALSE      FALSE       <NA>         0
#>  7 1507    6     PLACEBO TRUE   FALSE      FALSE       <NA>         0
#>  8 1507    7     PLACEBO TRUE   FALSE      FALSE       <NA>         0
#>  9 1509    4     DRUG    TRUE   FALSE      FALSE       <NA>         0
#> 10 1509    5     DRUG    TRUE   FALSE      FALSE       <NA>         0
#> # … with 678 more rows

delta_df <- delta_template(imputeObj) %>%
    as_tibble() %>% 
    mutate(delta = if_else(THERAPY == "DRUG" & is_missing , 5, 0)) %>% 
    select(PATIENT, VISIT, delta)
    
delta_df
#> # A tibble: 688 × 3
#>    PATIENT VISIT delta
#>    <fct>   <fct> <dbl>
#>  1 1503    4         0
#>  2 1503    5         0
#>  3 1503    6         0
#>  4 1503    7         0
#>  5 1507    4         0
#>  6 1507    5         0
#>  7 1507    6         0
#>  8 1507    7         0
#>  9 1509    4         0
#> 10 1509    5         0
#> # … with 678 more rows
…
