rbmi: Advanced Functionality • rbmi
…
Efficiently Changing Imputation Strategies

The draws() function is by far the most computationally intensive function in rbmi. In some settings, it may be important to explore the impact of a different reference-based imputation strategy than the one chosen for the main analysis. This change in the imputation strategy does not affect the imputation model but it does affect the subsequent imputation step. In order to allow changes in the imputation strategy without having to re-run the draws() function, the function impute() has an additional argument update_strategies.

Please note though that this functionality comes with a some key limitations: From a theoretical point of view, such updates are only sensible if the base imputation model and the data to which it is fitted are also applicable to the revised imputation strategy. For example, as described in help("draws", "rbmi"), observed post-ICE data are included in the imputation model for the MAR strategy but excluded for non-MAR strategies. For this reason, the imputation strategy cannot be changed from MAR to a non-MAR strategy in the presence of observed data after the ICE. Likewise, a change from a non-MAR to MAR in the presence of observed data after the ICE triggers a warning because the imputation model was not fitted to all relevant data and may be inefficient. Similarly, it is not possible to change the first visit which is affected by an ICE via argument update_strategies.

As an example, let’s assume we want to use the copy increments from reference strategy for the main analysis and explore the jump to reference imputation strategy as a sensitivity analysis. If we use approximate Bayesian multiple imputation with 10 random imputation, this could be implemented as follows:

dat_ice_CIR <- dat_ice
dat_ice_CIR$strategy <- "CIR"
dat_ice_CIR
#> # A tibble: 72 × 3
#>    id    visit   strategy
#>    <fct> <fct>   <chr>   
#>  1 P001  visit_2 CIR     
#>  2 P005  visit_3 CIR     
#>  3 P006  visit_2 CIR     
#>  4 P007  visit_2 CIR     
#>  5 P008  visit_2 CIR     
#>  6 P009  visit_2 CIR     
#>  7 P013  visit_3 CIR     
#>  8 P014  visit_3 CIR     
#>  9 P015  visit_2 CIR     
#> 10 P016  visit_2 CIR     
#> # … with 62 more rows
…
## Now we re-use our draws samples but using the Jump to Reference 
## Imputation strategy

dat_ice_JR <- dat_ice
dat_ice_JR$strategy <- "JR"
dat_ice_JR
#> # A tibble: 72 × 3
#>    id    visit   strategy
#>    <fct> <fct>   <chr>   
#>  1 P001  visit_2 JR      
#>  2 P005  visit_3 JR      
#>  3 P006  visit_2 JR      
#>  4 P007  visit_2 JR      
#>  5 P008  visit_2 JR      
#>  6 P009  visit_2 JR      
#>  7 P013  visit_3 JR      
#>  8 P014  visit_3 JR      
#>  9 P015  visit_2 JR      
#> 10 P016  visit_2 JR      
#> # … with 62 more rows
…
strategy_AVG(pars_group, pars_ref, index_mar)
#> $mu
#> [1] 1 2 5
#> 
#> $sigma
#>      [,1] [,2] [,3]
#> [1,]  1.0  1.2  1.0
#> [2,]  1.2  9.0  2.7
#> [3,]  1.0  2.7  4.0

To incorporate this into rbmi, data_ice needs to be updated such that subjects are specified as using the AVG imputation strategy. Additionally, the function needs to be provided to impute() via the getStrategies() function as shown below:

dat_ice$strategy <- "AVG"
dat_ice
#> # A tibble: 72 × 3
#>    id    visit   strategy
#>    <fct> <fct>   <chr>   
#>  1 P001  visit_2 AVG     
#>  2 P005  visit_3 AVG     
#>  3 P006  visit_2 AVG     
#>  4 P007  visit_2 AVG     
#>  5 P008  visit_2 AVG     
#>  6 P009  visit_2 AVG     
#>  7 P013  visit_3 AVG     
#>  8 P014  visit_3 AVG     
#>  9 P015  visit_2 AVG     
#> 10 P016  visit_2 AVG     
#> # … with 62 more rows
…
i.e. on week-6 (1 week after the ICE) they have a delta of 3 and on week-9 (4 weeks after the ICE) they have a delta of 12

To show this in action, lets say that we want a constant delta of 5 to be applied (regardless of the lag) to all unobserved post-ICE visits in the treatment arm only. This can be achieved as follows:

First use the delta and dlag arguments of delta_template() to setup a template data.frame in which every unobserved post-ICE visit has a delta of 5:

delta_df <- delta_template(
    impute_obj_CIR, 
    delta = c(5, 5, 5), 
    dlag = c(1, 0, 0)
)

as_tibble(delta_df)
#> # A tibble: 360 × 8
#>    id    visit   group is_mar is_missing is_post_ice strategy delta
#>    <fct> <fct>   <fct> <lgl>  <lgl>      <lgl>       <chr>    <dbl>
#>  1 P001  visit_1 A     TRUE   FALSE      FALSE       NA           0
#>  2 P001  visit_2 A     FALSE  TRUE       TRUE        CIR          5
#>  3 P001  visit_3 A     FALSE  FALSE      TRUE        NA           0
#>  4 P002  visit_1 A     TRUE   FALSE      FALSE       NA           0
#>  5 P002  visit_2 A     TRUE   FALSE      FALSE       NA           0
#>  6 P002  visit_3 A     TRUE   FALSE      FALSE       NA           0
#>  7 P003  visit_1 A     TRUE   FALSE      FALSE       NA           0
#>  8 P003  visit_2 A     TRUE   FALSE      FALSE       NA           0
#>  9 P003  visit_3 A     TRUE   FALSE      FALSE       NA           0
#> 10 P004  visit_1 A     TRUE   FALSE      FALSE       NA           0
#> # … with 350 more rows

Next we can use the additional metadata variables provided by delta_template() to manually reset the delta values for the control group back to 0:

delta_df2 <- delta_df %>% 
    mutate(delta = if_else(group == "B", 0, delta))

as_tibble(delta_df2)
#> # A tibble: 360 × 8
#>    id    visit   group is_mar is_missing is_post_ice strategy delta
#>    <fct> <fct>   <fct> <lgl>  <lgl>      <lgl>       <chr>    <dbl>
#>  1 P001  visit_1 A     TRUE   FALSE      FALSE       NA           0
#>  2 P001  visit_2 A     FALSE  TRUE       TRUE        CIR          5
#>  3 P001  visit_3 A     FALSE  FALSE      TRUE        NA           0
#>  4 P002  visit_1 A     TRUE   FALSE      FALSE       NA           0
#>  5 P002  visit_2 A     TRUE   FALSE      FALSE       NA           0
#>  6 P002  visit_3 A     TRUE   FALSE      FALSE       NA           0
#>  7 P003  visit_1 A     TRUE   FALSE      FALSE       NA           0
#>  8 P003  visit_2 A     TRUE   FALSE      FALSE       NA           0
#>  9 P003  visit_3 A     TRUE   FALSE      FALSE       NA           0
#> 10 P004  visit_1 A     TRUE   FALSE      FALSE       NA           0
#> # … with 350 more rows
…
